harpRHMusic = \relative c'' { \key g \major 

				\repeat unfold 2 {g a b c d e fis g} 
				
				
 }

harpLHMusic = \relative c { \clef bass \key g \major 


				\repeat unfold 2 {g a b c d e fis g} 
				
				
 }